<?xml version="1.0" encoding="utf-8"?>
<!-- Generator: Adobe Illustrator 20.1.0, SVG Export Plug-In . SVG Version: 6.00 Build 0)  -->
<svg version="1.1" id="Calque_1" xmlns="http://www.w3.org/2000/svg" xmlns:xlink="http://www.w3.org/1999/xlink" x="0px" y="0px"
	 viewBox="0 0 422.8 422.8" style="enable-background:new 0 0 422.8 422.8;" xml:space="preserve">
<style type="text/css">
	.st0{fill:#5EA7DB;}
	.st1{fill:#FEFEFE;}
</style>
<g>
	<path class="st0" d="M130.8,161.3c2-1.4,4.4-1.4,6.6-1.4c25,0,49.9,0,74.9,0s49.9,0,74.9,0c2.1,0,4.3-0.1,6.2,1.2
		c1.7,1.1,1.8,1.3,0.2,2.6c-10.9,9-21.9,18-32.8,27c-13.8,11.4-27.6,22.7-41.4,34.1c-4.7,3.9-9.4,3.9-14.1,0.1
		c-17.8-14.7-35.6-29.3-53.4-43.9c-7-5.8-14.1-11.6-21.1-17.4C129.6,162.6,129.6,162.1,130.8,161.3z"/>
	<path class="st0" d="M296.2,169.8c-2.7,2.2-5.3,4.5-8,6.7c-23,19.4-46,38.8-68.9,58.4c-4.4,3.8-10.1,3.4-14,0
		c-7.1-6-14.3-11.9-21.5-17.8c-14.8-12.3-29.7-24.6-44.5-36.8c-4.2-3.5-8.5-7-13-10.8c0,0.9-0.1,1.4-0.1,1.8c0,28.5,0,57,0,85.5
		c0,1.4,0.1,2.7,0.6,4c1.4,3.4,4.4,5.2,8.5,5.2h152.2c0.2,0,0.5,0,0.7,0c4.8-0.2,8.2-3.6,8.2-8.5c0-28.8,0-57.5,0-86.2
		C296.5,170.9,296.8,170.3,296.2,169.8z M176.5,223.1c-10.7,10.2-21.3,20.4-32,30.5c-1.9,1.8-3.8,3.6-5.7,5.4
		c-0.8,0.7-1.6,1.2-2.5,1.1c-1.7,0-2.8-0.6-3.5-2c-0.7-1.4,0-2.5,1-3.5c7.7-7.3,15.3-14.7,22.9-22c4.8-4.5,9.5-9.1,14.3-13.6
		c2.6-2.5,5.2-1.7,6.1,1.8C177.4,221.8,177.1,222.5,176.5,223.1z M291.3,255.9c-0.2,2-0.7,3.4-2.2,4c-1.6,0.6-3,0.3-4.2-0.9
		c-4.5-4.4-9.1-8.8-13.6-13.3c-7.6-7.4-15.1-14.8-22.7-22.3c-1.8-1.7-1.8-3.1-0.2-4.7c1.6-1.6,2.8-1.7,4.5-0.1
		c6.9,6.5,13.7,13.1,20.6,19.6c5.4,5.2,10.9,10.4,16.3,15.6C290.5,254.5,291.4,255.2,291.3,255.9z"/>
	<path class="st0" d="M211.3,0C95.5-0.2,0,93.7,0,211.3C0,329,95.5,422.8,211.4,422.8c116.2,0,211.3-94.3,211.4-211.3
		C422.9,94.6,328-0.3,211.3,0z M207.5,410.5c-106.9-1.9-195.2-89-195.2-199.2c-0.1-110,89.4-200.1,201.1-199.1
		c107.7,1,197.1,87.9,197.2,199.2C410.7,323,319.5,412.6,207.5,410.5z"/>
	<path class="st1" d="M130.8,161.3c2-1.4,4.4-1.4,6.6-1.4c25,0,49.9,0,74.9,0s49.9,0,74.9,0c2.1,0,4.3-0.1,6.2,1.2
		c1.7,1.1,1.8,1.3,0.2,2.6c-10.9,9-21.9,18-32.8,27c-13.8,11.4-27.6,22.7-41.4,34.1c-4.7,3.9-9.4,3.9-14.1,0.1
		c-17.8-14.7-35.6-29.3-53.4-43.9c-7-5.8-14.1-11.6-21.1-17.4C129.6,162.6,129.6,162.1,130.8,161.3z"/>
	<path class="st1" d="M296.2,169.8c-2.7,2.2-5.3,4.5-8,6.7c-23,19.4-46,38.8-68.9,58.4c-4.4,3.8-10.1,3.4-14,0
		c-7.1-6-14.3-11.9-21.5-17.8c-14.8-12.3-29.7-24.6-44.5-36.8c-4.2-3.5-8.5-7-13-10.8c0,0.9-0.1,1.4-0.1,1.8c0,28.5,0,57,0,85.5
		c0,1.4,0.1,2.7,0.6,4c1.4,3.4,4.4,5.2,8.5,5.2h152.2c0.2,0,0.5,0,0.7,0c4.8-0.2,8.2-3.6,8.2-8.5c0-28.8,0-57.5,0-86.2
		C296.5,170.9,296.8,170.3,296.2,169.8z M176.5,223.1c-10.7,10.2-21.3,20.4-32,30.5c-1.9,1.8-3.8,3.6-5.7,5.4
		c-0.8,0.7-1.6,1.2-2.5,1.1c-1.7,0-2.8-0.6-3.5-2c-0.7-1.4,0-2.5,1-3.5c7.7-7.3,15.3-14.7,22.9-22c4.8-4.5,9.5-9.1,14.3-13.6
		c2.6-2.5,5.2-1.7,6.1,1.8C177.4,221.8,177.1,222.5,176.5,223.1z M291.3,255.9c-0.2,2-0.7,3.4-2.2,4c-1.6,0.6-3,0.3-4.2-0.9
		c-4.5-4.4-9.1-8.8-13.6-13.3c-7.6-7.4-15.1-14.8-22.7-22.3c-1.8-1.7-1.8-3.1-0.2-4.7c1.6-1.6,2.8-1.7,4.5-0.1
		c6.9,6.5,13.7,13.1,20.6,19.6c5.4,5.2,10.9,10.4,16.3,15.6C290.5,254.5,291.4,255.2,291.3,255.9z"/>
	<path class="st0" d="M296.2,169.8c-2.7,2.2-5.3,4.5-8,6.7c-23,19.4-46,38.8-68.9,58.4c-4.4,3.8-10.1,3.4-14,0
		c-7.1-6-14.3-11.9-21.5-17.8c-14.8-12.3-29.7-24.6-44.5-36.8c-4.2-3.5-8.5-7-13-10.8c0,0.9-0.1,1.4-0.1,1.8c0,28.5,0,57,0,85.5
		c0,1.4,0.1,2.7,0.6,4c1.4,3.4,4.4,5.2,8.5,5.2h152.2c0.2,0,0.5,0,0.7,0c4.8-0.2,8.2-3.6,8.2-8.5c0-28.8,0-57.5,0-86.2
		C296.5,170.9,296.8,170.3,296.2,169.8z M176.5,223.1c-10.7,10.2-21.3,20.4-32,30.5c-1.9,1.8-3.8,3.6-5.7,5.4
		c-0.8,0.7-1.6,1.2-2.5,1.1c-1.7,0-2.8-0.6-3.5-2c-0.7-1.4,0-2.5,1-3.5c7.7-7.3,15.3-14.7,22.9-22c4.8-4.5,9.5-9.1,14.3-13.6
		c2.6-2.5,5.2-1.7,6.1,1.8C177.4,221.8,177.1,222.5,176.5,223.1z M291.3,255.9c-0.2,2-0.7,3.4-2.2,4c-1.6,0.6-3,0.3-4.2-0.9
		c-4.5-4.4-9.1-8.8-13.6-13.3c-7.6-7.4-15.1-14.8-22.7-22.3c-1.8-1.7-1.8-3.1-0.2-4.7c1.6-1.6,2.8-1.7,4.5-0.1
		c6.9,6.5,13.7,13.1,20.6,19.6c5.4,5.2,10.9,10.4,16.3,15.6C290.5,254.5,291.4,255.2,291.3,255.9z"/>
	<path class="st0" d="M293.6,163.7c-10.9,9-21.9,18-32.8,27c-13.8,11.4-27.6,22.7-41.4,34.1c-4.7,3.9-9.4,3.9-14.1,0.1
		c-17.8-14.7-35.6-29.3-53.4-43.9c-7-5.8-14.1-11.6-21.1-17.4c-1.1-0.9-1.1-1.4,0.1-2.2c2-1.4,4.4-1.4,6.6-1.4c25,0,49.9,0,74.9,0
		s49.9,0,74.9,0c2.1,0,4.3-0.1,6.2,1.2C295.1,162.2,295.1,162.4,293.6,163.7z"/>
</g>
</svg>
