<?xml version="1.0" encoding="utf-8"?>
<!-- Generator: Adobe Illustrator 20.1.0, SVG Export Plug-In . SVG Version: 6.00 Build 0)  -->
<svg version="1.1" id="Calque_1" xmlns="http://www.w3.org/2000/svg" xmlns:xlink="http://www.w3.org/1999/xlink" x="0px" y="0px"
	 viewBox="0 0 294.1 317.5" style="enable-background:new 0 0 294.1 317.5;" xml:space="preserve">
<style type="text/css">
	.st0{fill:#5C5C5C;}
	.st1{fill:#9A999A;}
</style>
<g>
	<path class="st0" d="M0,251.1c0.8-0.7,0.4-1.7,0.5-2.5c1.3-6.7,4.7-12.3,8.6-17.7c6.7-9.1,13.2-18.4,19.8-27.5
		c7-9.7,13.9-19.3,20.9-29c7.9-11,15.8-22.1,23.8-33.1c7-9.7,13.9-19.3,20.9-29c6-8.4,12.1-16.9,18.1-25.3c7-9.7,13.9-19.4,20.9-29
		c7.4-10.3,14.8-20.6,22.2-30.9c2.5-3.5,5-7,7.6-10.5c1.9-2.6,4.8-3.1,7.6-3.5c5.6-0.9,11.1-1.8,16.7-2.7c8-1.3,16-2.6,24-3.9
		s16-2.7,24-3.9c1.7-0.3,3.4-0.3,5.1-0.5c7.7-0.2,15,1.3,21.9,4.9c8.1,4.2,14,10.5,17.4,19.1c2.2,5.5,3.1,11.4,4,17.2
		c1.2,7.2,2.4,14.5,3.6,21.7c1.2,7.3,2.4,14.7,3.6,22c0.9,5.4,1.7,10.7,2.6,16.1c0.4,2.6,0.2,4.8-1.4,7
		c-12,16.6-23.9,33.2-35.9,49.8c-10.3,14.4-20.7,28.8-31,43.2c-9.6,13.4-19.3,26.7-28.9,40.1c-9,12.5-17.9,25-26.9,37.5
		c-6.5,9.1-13.1,18.2-19.6,27.3c-2.2,3.1-5.7,3.6-8.8,1.3c-2.2-1.6-4.2-5.2-1.6-8.7c8.9-12.2,17.7-24.5,26.5-36.7
		c8.4-11.7,16.8-23.5,25.3-35.3c7.8-10.8,15.6-21.6,23.4-32.4c7.9-11,15.8-22.1,23.7-33.1c6.9-9.6,13.7-19.1,20.6-28.7
		c6.8-9.4,13.6-18.8,20.4-28.3c1.4-1.9,0.9-4.1,0.6-6.3c-1.5-8.8-2.8-17.6-4.3-26.3c-0.7-4.5-1.5-9.1-2.3-13.6
		c-1.1-6.8-2.2-13.7-3.3-20.5c-1.1-6.4-3-12.4-7.8-17.1c-3.9-3.8-8.5-5.7-13.8-6.7c-5.5-1-10.8-0.2-16.2,0.8
		c-6.8,1.2-13.6,2.2-20.4,3.3c-7.3,1.2-14.7,2.4-22,3.6c-4.7,0.8-9.4,1.7-14.1,2.2c-2.6,0.3-4.5,1.5-5.9,3.6
		c-5.7,7.9-11.4,15.8-17.1,23.7c-6.5,9-13,18.1-19.5,27.1c-7.4,10.3-14.7,20.6-22.1,30.8c-7,9.7-13.9,19.4-20.9,29
		c-6.6,9.2-13.2,18.4-19.7,27.6c-6.9,9.6-13.9,19.3-20.8,28.9c-7.6,10.4-15,20.8-22.4,31.1c-3.5,4.9-7.1,9.9-10.7,14.7
		c-4.4,6-4.9,14.8-0.9,20.4c2,2.8,4.8,4.7,7.6,6.7c13.2,9.5,26.4,19,39.7,28.5c1.6,1.2,3.3,2.3,5,3.5c2.7,1.9,5.9,2.6,9.1,2.8
		c6,0.4,10.7-2.3,14.1-7c8.7-12,17.3-24.1,25.9-36.1c7.5-10.4,15-20.9,22.5-31.3c7.9-11,15.8-22.1,23.7-33.1
		c8.5-11.8,17-23.7,25.5-35.5c0.9-1.2,1.4-2.6,1.4-4.1c-0.2-6.5-1.1-12.8-3.8-18.8c-2.9-6.6-8.2-10-15.2-11.3
		c-7.2-1.4-14.2-0.3-21.2,1.4c-1.6,0.4-2.7,1.6-3.6,2.8c-9,12.5-18,25-27,37.5c-9.5,13.2-19,26.5-28.4,39.7
		c-9,12.6-18.1,25.2-27.2,37.7c-1.9,2.7-5.5,4-8.9,1.7c-3-2.1-3.8-5.8-1.6-8.9c6.1-8.7,12.4-17.3,18.5-25.9
		c7.1-9.9,14.2-19.8,21.3-29.7c7-9.7,13.9-19.4,20.9-29c7.4-10.3,14.8-20.6,22.2-30.9c0.8-1.1,1.6-2.1,2.3-3.2
		c1.7-2.7,4.5-3.3,7.2-4.2c6.7-2.2,13.6-3.1,20.5-2.9c9.9,0.3,18.7,3.4,25.8,10.7c5.3,5.5,8.2,12.3,9.8,19.6
		c1.3,5.8,1.4,11.6,1.4,17.5c0,1.7-0.8,3.1-1.7,4.4c-8.2,11.5-16.5,23-24.8,34.5c-6.6,9.1-13.1,18.3-19.6,27.4
		c-7,9.7-13.9,19.3-20.9,29c-6,8.4-12.1,16.9-18.1,25.3c-5.7,7.9-11.3,15.8-17,23.6c-4.8,6.5-11.3,10.6-19.3,11.9
		c-1,0.2-2.1,0.1-3.1,0.2c-2.1,0.8-4.2,0.3-6.3-0.1c-5.6-1-10.5-3.5-15.1-6.8c-13.5-9.8-27.1-19.5-40.6-29.2
		c-2.9-2.1-5.9-3.9-8.4-6.5c-4.9-5-8.4-10.7-8.5-18c-0.1-1.7,0.2-3.3-0.2-5C0,251.3,0,251.2,0,251.1z"/>
	<path class="st1" d="M0.3,256.7c-0.1,0-0.2,0-0.3,0c0-1.8,0-3.5,0-5.3C0.7,253.1,0.2,255,0.3,256.7z"/>
</g>
</svg>
