<?xml version="1.0" encoding="utf-8"?>
<!-- Generator: Adobe Illustrator 21.1.0, SVG Export Plug-In . SVG Version: 6.00 Build 0)  -->
<svg version="1.1" id="Capa_1" xmlns="http://www.w3.org/2000/svg" xmlns:xlink="http://www.w3.org/1999/xlink" x="0px" y="0px"
	 viewBox="0 0 309 281.6" style="enable-background:new 0 0 309 281.6;" xml:space="preserve">
<style type="text/css">
	.st0{fill:#6699CD;}
</style>
<g>
	<path class="st0" d="M221.6,37c-0.3-2.5-1.8-4.7-4.1-5.9L157.9,0.9c-2.1-1.1-4.6-1.1-6.8,0L91.5,31.1c-2.5,1.3-4.1,3.9-4.1,6.7v0v0
		v50.3L4.3,128.5c-2.5,1.2-4.1,3.6-4.3,6.4c-0.1,2.8,1.3,5.4,3.6,6.8l52.4,31.4v54.9c0,2.8,1.6,5.4,4.1,6.7l91,45.9
		c1.1,0.5,2.2,0.8,3.4,0.8s2.3-0.3,3.4-0.8l91-45.9c2.5-1.3,4.1-3.9,4.1-6.7v-54.9l52.4-31.4c2.4-1.4,3.8-4,3.6-6.8
		c-0.1-2.8-1.8-5.2-4.3-6.4l-83.1-40.4V37z M228.9,108.6l-7.2,3.6v-7.3L228.9,108.6z M154.5,16l43,21.8l-43,21.8l-43-21.8L154.5,16z
		 M87.4,104.9v7.3l-7.2-3.6L87.4,104.9z M23.4,136.1L63.5,117l76,38.2l-40.3,26.4L23.4,136.1z M147,261.9l-76-38.4v-41.3l24.5,14.7
		c1.2,0.7,2.5,1.1,3.9,1.1c1.4,0,2.9-0.4,4.1-1.2l43.5-28.5V261.9z M154.5,146l-52.1-26.2V50l48.7,24.7c1.1,0.5,2.2,0.8,3.4,0.8
		c1.2,0,2.3-0.3,3.4-0.8L206.6,50v69.8L154.5,146z M238,223.5l-76,38.4v-93.7l43.5,28.5c1.2,0.8,2.7,1.2,4.1,1.2
		c1.3,0,2.7-0.4,3.9-1.1l24.5-14.7L238,223.5L238,223.5z M209.8,181.6l-40.3-26.4l76-38.2l40.1,19.1L209.8,181.6z"/>
</g>
</svg>
