<?xml version="1.0" encoding="utf-8"?>
<!-- Generator: Adobe Illustrator 21.1.0, SVG Export Plug-In . SVG Version: 6.00 Build 0)  -->
<svg version="1.1" id="Mode_Isolation" xmlns="http://www.w3.org/2000/svg" xmlns:xlink="http://www.w3.org/1999/xlink" x="0px"
	 y="0px" viewBox="0 0 391.7 504" style="enable-background:new 0 0 391.7 504;" xml:space="preserve">
<style type="text/css">
	.st0{fill:#6497CC;}
</style>
<path class="st0" d="M381.9,504H218.8c-5.4,0-9.7-4.3-9.7-9.7V384.5h-26.5v109.8c0,5.4-4.3,9.7-9.7,9.7H9.7c-5.4,0-9.7-4.3-9.7-9.7
	V9.7C0,4.3,4.4,0,9.7,0h372.2c5.4,0,9.7,4.3,9.7,9.7v484.6C391.6,499.7,387.3,504,381.9,504L381.9,504z M228.5,484.6h143.8V19.4
	H19.4v465.2h143.8V374.8c0-5.4,4.3-9.7,9.7-9.7h45.9c5.4,0,9.7,4.3,9.7,9.7V484.6L228.5,484.6z M182.6,110.5h26.5V73h-26.5V110.5
	L182.6,110.5z M218.8,129.9h-45.9c-5.4,0-9.7-4.3-9.7-9.7V63.3c0-5.4,4.3-9.7,9.7-9.7h45.9c5.4,0,9.7,4.3,9.7,9.7v56.9
	C228.5,125.5,224.1,129.9,218.8,129.9L218.8,129.9z M182.6,214.3h26.5v-37.5h-26.5V214.3L182.6,214.3z M218.8,233.7h-45.9
	c-5.4,0-9.7-4.3-9.7-9.7v-56.9c0-5.4,4.3-9.7,9.7-9.7h45.9c5.4,0,9.7,4.3,9.7,9.7V224C228.5,229.4,224.1,233.7,218.8,233.7
	L218.8,233.7z M182.6,318.2h26.5v-37.5h-26.5V318.2L182.6,318.2z M218.8,337.6h-45.9c-5.4,0-9.7-4.3-9.7-9.7V271
	c0-5.4,4.3-9.7,9.7-9.7h45.9c5.4,0,9.7,4.3,9.7,9.7v56.9C228.5,333.2,224.1,337.6,218.8,337.6L218.8,337.6z M81.2,110.5h26.5V73
	H81.2V110.5L81.2,110.5z M117.4,129.9H71.5c-5.4,0-9.7-4.3-9.7-9.7V63.3c0-5.4,4.3-9.7,9.7-9.7h45.9c5.4,0,9.7,4.3,9.7,9.7v56.9
	C127.1,125.5,122.7,129.9,117.4,129.9L117.4,129.9z M81.2,214.3h26.5v-37.5H81.2V214.3L81.2,214.3z M117.4,233.7H71.5
	c-5.4,0-9.7-4.3-9.7-9.7v-56.9c0-5.4,4.3-9.7,9.7-9.7h45.9c5.4,0,9.7,4.3,9.7,9.7V224C127.1,229.4,122.7,233.7,117.4,233.7
	L117.4,233.7z M81.2,318.2h26.5v-37.5H81.2V318.2L81.2,318.2z M117.4,337.6H71.5c-5.4,0-9.7-4.3-9.7-9.7V271c0-5.4,4.3-9.7,9.7-9.7
	h45.9c5.4,0,9.7,4.3,9.7,9.7v56.9C127.1,333.2,122.7,337.6,117.4,337.6L117.4,337.6z M81.2,422h26.5v-37.5H81.2V422L81.2,422z
	 M117.4,441.4H71.5c-5.4,0-9.7-4.3-9.7-9.7v-56.9c0-5.4,4.3-9.7,9.7-9.7h45.9c5.4,0,9.7,4.3,9.7,9.7v56.9
	C127.1,437.1,122.7,441.4,117.4,441.4L117.4,441.4z M283.9,110.5h26.5V73h-26.5V110.5L283.9,110.5z M320.2,129.9h-45.9
	c-5.4,0-9.7-4.3-9.7-9.7V63.3c0-5.4,4.3-9.7,9.7-9.7h45.9c5.4,0,9.7,4.3,9.7,9.7v56.9C329.9,125.5,325.5,129.9,320.2,129.9
	L320.2,129.9z M283.9,214.3h26.5v-37.5h-26.5V214.3L283.9,214.3z M320.2,233.7h-45.9c-5.4,0-9.7-4.3-9.7-9.7v-56.9
	c0-5.4,4.3-9.7,9.7-9.7h45.9c5.4,0,9.7,4.3,9.7,9.7V224C329.9,229.4,325.5,233.7,320.2,233.7L320.2,233.7z M283.9,318.2h26.5v-37.5
	h-26.5V318.2L283.9,318.2z M320.2,337.6h-45.9c-5.4,0-9.7-4.3-9.7-9.7V271c0-5.4,4.3-9.7,9.7-9.7h45.9c5.4,0,9.7,4.3,9.7,9.7v56.9
	C329.9,333.2,325.5,337.6,320.2,337.6L320.2,337.6z M283.9,422h26.5v-37.5h-26.5V422L283.9,422z M320.2,441.4h-45.9
	c-5.4,0-9.7-4.3-9.7-9.7v-56.9c0-5.4,4.3-9.7,9.7-9.7h45.9c5.4,0,9.7,4.3,9.7,9.7v56.9C329.9,437.1,325.5,441.4,320.2,441.4
	L320.2,441.4z"/>
</svg>
