<?xml version="1.0" encoding="utf-8"?>
<!-- Generator: Adobe Illustrator 21.1.0, SVG Export Plug-In . SVG Version: 6.00 Build 0)  -->
<svg version="1.1" id="Mode_Isolation" xmlns="http://www.w3.org/2000/svg" xmlns:xlink="http://www.w3.org/1999/xlink" x="0px"
	 y="0px" viewBox="0 0 356.8 339.3" style="enable-background:new 0 0 356.8 339.3;" xml:space="preserve">
<style type="text/css">
	.st0{fill:#6497CC;}
</style>
<path class="st0" d="M204.7,61.9l54.2,22.5l8.5-49.9c1.4-8.1-3.7-17.5-11-20.6c-1.9-0.8-4-1.2-6.2-1.2c-6.4,0-12.7,3.1-16.1,7.9
	L204.7,61.9L204.7,61.9z M305,304.2h-33.8V327H305V304.2L305,304.2z M51.8,327h33.8v-22.8H51.8V327L51.8,327z M25.8,267.1l42.6-140
	c0.8-2.6,3.2-4.4,5.9-4.4h208.4c2.7,0,5.1,1.8,5.9,4.4l6.3,20.6L330.7,90l-55.1-30.2L269.8,94c-0.3,1.8-1.4,3.4-3.1,4.3
	c-0.9,0.5-1.9,0.8-3,0.8c-0.8,0-1.6-0.2-2.3-0.5l-68.4-28.4c-1.7-0.7-3-2.2-3.6-4c-0.5-1.8-0.2-3.7,0.9-5.3L224,13.5
	c5.7-8.1,15.8-13.1,26.1-13.1c3.9,0,7.5,0.7,10.9,2.1c12.7,5.2,20.8,20.2,18.4,34L277.7,47l64.6,35.4c1.5,0.8,2.6,2.2,3,3.8
	c0.4,1.6,0.2,3.4-0.7,4.8l-45.1,72.3L331,267.1h7.1c10.2,0,18.6,8.3,18.6,18.6c0,10.2-8.3,18.6-18.6,18.6h-20.9v29
	c0,3.4-2.8,6.1-6.1,6.1h-46.1c-3.4,0-6.1-2.8-6.1-6.1v-29h-161v29c0,3.4-2.7,6.1-6.1,6.1H45.7c-3.4,0-6.1-2.8-6.1-6.1l0-29H18.6
	c-10.2,0-18.6-8.3-18.6-18.6c0-10.2,8.3-18.6,18.6-18.6H25.8L25.8,267.1z M18.6,279.4c-3.5,0-6.3,2.8-6.3,6.3c0,3.5,2.8,6.3,6.3,6.3
	h319.5c3.5,0,6.3-2.8,6.3-6.3c0-3.5-2.8-6.3-6.3-6.3H18.6L18.6,279.4z M38.6,267.1h279.6L278.1,135H78.8L38.6,267.1L38.6,267.1z
	 M242.1,249.3H114.8c-2,0-3.8-0.9-5-2.5c-1.2-1.6-1.5-3.6-0.9-5.5l26.8-84.3c0.8-2.6,3.2-4.3,5.9-4.3h73.7c2.7,0,5,1.7,5.9,4.3
	l26.5,83.4c0.4,0.8,0.6,1.7,0.6,2.7C248.2,246.6,245.5,249.3,242.1,249.3L242.1,249.3z M123.2,237h110.4l-22.9-72h-64.7L123.2,237
	L123.2,237z"/>
</svg>
