<?xml version="1.0" encoding="utf-8"?>
<!-- Generator: Adobe Illustrator 20.1.0, SVG Export Plug-In . SVG Version: 6.00 Build 0)  -->
<svg version="1.1" id="Calque_1" xmlns="http://www.w3.org/2000/svg" xmlns:xlink="http://www.w3.org/1999/xlink" x="0px" y="0px"
	 viewBox="0 0 340.1 368.2" style="enable-background:new 0 0 340.1 368.2;" xml:space="preserve">
<style type="text/css">
	.st0{fill:#3299CC;}
	.st1{fill:#FFFFFF;}
</style>
<g>
	<path class="st0" d="M269.5,233.1c0.1,13.7,0.1,27.4,0,41.1c0,1.4,0.2,1.9,1.8,1.9c19.4-0.1,38.8,0,58.3-0.1
		c6.7,0,10.5-3.8,10.5-10.5c0-57.1,0-100.2,0-157.3c0-1.1,0.1-2.3-0.3-3.4c-1.3-4.8-4.8-7.2-10.6-7.2c-53,0-106.1,0-159.1,0
		c-36.1,0-72.2,0-108.4,0c-16.9,0-33.8,0-50.7,0c-1.9,0-3.8,0-5.5,0.9c-4.2,2.2-5.5,5.8-5.5,10.3c0,56.7,0,99.4,0,156.1
		c0,0.7,0,1.4,0.1,2c0.6,5.6,4.2,9.1,9.8,9.1c17.7,0.1,35.3,0,53,0.1c1.2,0,1.4-0.4,1.4-1.5c0-14,0-28,0-42l0.1-20.7
		c76.1,0,129.2,0,205.3,0L269.5,233.1z"/>
	<path class="st0" d="M250.4,15.4c0,26.3,0,34.6,0,60.9c0,1.9-0.5,2.2-2.3,2.2c-54.2,0-108.4,0-162.5,0c-1.7,0-2.3-0.3-2.3-2.2
		c0.1-28.5,0.1-38.9,0-67.4v0c0-4.9,4-8.9,8.9-8.9l1.3,0c24.5,0,48.9,0,73.4,0c22.1,0,44.2,0,66.3,0l7.6,0c5.3,0,9.6,4.3,9.6,9.6
		L250.4,15.4z"/>
	<path class="st0" d="M250.4,358.2c0-34.7,0-94.7,0-124.9c0-1.7-0.4-2.1-2.2-2.1c-27.1,0.1-54.2,0-81.3,0c-27.2,0-54.3,0-81.5,0
		c-1.7,0-2.1,0.4-2.1,2c0.1,30.9,0.1,92.7,0,127.1l0,1.5c0,3.6,2.9,6.5,6.5,6.5l2.2,0c49.8,0,99.5,0,149.3,0l1.2,0
		c4.3,0,7.8-3.5,7.8-7.8L250.4,358.2z"/>
	<path class="st1" d="M53.1,136c0,7.6-6,13.7-13.6,13.7c-7.7,0-13.8-6.2-13.7-13.8c0-7.1,6.4-13.5,13.6-13.5
		C46.8,122.3,53.1,128.6,53.1,136z"/>
	<path class="st1" d="M166.7,273.2c-18.9,0-37.9,0-56.8,0c-4.8,0-8.5-2.3-9.8-6c-2-5.7,2-11.4,8.5-11.9c0.5,0,1.1,0,1.6,0
		c37.8,0,75.6,0,113.4,0c5.3,0,8.8,2.2,10.1,6.4c1.9,5.7-2.4,11.5-8.8,11.6c-10.3,0.1-20.6,0-31,0
		C184.9,273.2,175.8,273.2,166.7,273.2z"/>
	<path class="st1" d="M167,291.4c18.8,0,37.6,0,56.4,0c5.3,0,9,2.2,10.3,6.1c2.1,6-2.3,11.6-9.4,11.9c-0.3,0-0.7,0-1,0
		c-37.6,0-75.2,0-112.8,0c-5.6,0-9.2-2.3-10.6-6.6c-1.6-5.2,2.3-10.7,8-11.3c1-0.1,2-0.1,3-0.1C129.6,291.4,148.3,291.4,167,291.4z"
		/>
</g>
<path class="st1" d="M167,327.3c18.8,0,37.6,0,56.4,0c5.3,0,9,2.2,10.3,6.1c2.1,6-2.3,11.6-9.4,11.9c-0.3,0-0.7,0-1,0
	c-37.6,0-75.2,0-112.8,0c-5.6,0-9.2-2.3-10.6-6.6c-1.6-5.2,2.3-10.7,8-11.3c1-0.1,2-0.1,3-0.1C129.6,327.3,148.3,327.3,167,327.3z"
	/>
</svg>
