<?xml version="1.0" encoding="utf-8"?>
<!-- Generator: Adobe Illustrator 20.1.0, SVG Export Plug-In . SVG Version: 6.00 Build 0)  -->
<svg version="1.1" id="Calque_1" xmlns="http://www.w3.org/2000/svg" xmlns:xlink="http://www.w3.org/1999/xlink" x="0px" y="0px"
	 viewBox="0 0 439.4 438.1" style="enable-background:new 0 0 439.4 438.1;" xml:space="preserve">
<style type="text/css">
	.st0{fill:#5EA7DB;}
	.st1{fill:#FFFFFF;}
</style>
<g>
	<path class="st0" d="M313.4,194.4c-0.2-8.8-2.3-17.1-7.5-24.1c-13.3-17.9-30.1-29.5-53.7-27.7c-10.3,0.8-19.8,3.7-28.3,9.5
		c-1.6,1.1-3.1,3.4-4.9,3.2c-1.8-0.2-3.5-2-5.2-3.2c-11.5-8.1-24.2-10.9-38-9.1c-3.2,0.4-6.5,0.5-9.6,1.6c-10,3.7-18.2,10-25.3,17.8
		c-9.3,10.3-13.5,22.5-12.5,35.7c-0.1,5.4-0.1,10,0.6,14.5c2,13.2,7.9,24.8,16.2,35.1c7.5,9.3,15.4,18.2,24.5,26
		c17.1,14.7,34.5,29.1,50.4,45.2c1.2,1.3,1.9,1,3-0.1c4.1-4.2,8.3-8.3,12.4-12.5c12-12.2,25.7-22.4,38.7-33.5
		c11.3-9.7,21.3-20.6,29.4-33.2c3.6-5.7,7-11.6,8.1-18.4C313.1,212.3,313.7,203.4,313.4,194.4z M277.6,208.7c-0.9,1.8-1.1,4-1.6,6
		c-1.6,6.2-5.2,11.3-9.5,15.9c-6.8,7.3-13.7,14.7-21.7,20.8c-8.5,6.5-16.1,14-24.2,21c-1.1,1-1.7,1.3-3,0.1
		c-9.6-9.4-20.7-17.1-30.8-25.9c-6.4-5.6-12.7-11.5-18.2-18c-3.4-4-6.3-8.6-7.8-13.7c-1.8-6.4-4-12.8-3.3-17.7
		c0.1-6.5,1.5-10.6,5.2-13.6c2.2-1.9,4.3-3.9,6.5-5.7c7.9-6.3,16.1-5.9,24.5-1.2c7,3.9,11.5,10.2,15.6,16.8c2.9,4.7,5.9,9.3,8.7,14
		c0.9,1.6,1.4,1.3,2.2,0c3.5-5.7,7.1-11.3,10.6-17c4.6-7.5,10.6-13.2,19.1-16.2c4-1.4,8-1.5,11.8-0.3c9.8,3.3,16.2,10,17.5,20.4
		C279.8,199,279.9,204.1,277.6,208.7z"/>
	<path class="st0" d="M219.3,0C99.3-0.5,0.2,97.7,0,218.7c-0.2,119.9,97,219.4,219.1,219.4c120.2,0.1,220.2-97.2,220.3-218.8
		C439.6,96.6,339.2-0.4,219.3,0z M218.5,413.6c-107-0.3-194.2-87.9-193.9-194.7C24.3,112.1,111.9,25.6,219.1,25.6
		c106.4,0,195.8,87,194.6,195.7C412.5,326.9,327.4,413.9,218.5,413.6z"/>
	<path class="st1" d="M313.4,194.4c-0.2-8.8-2.3-17.1-7.5-24.1c-13.3-17.9-30.1-29.5-53.7-27.7c-10.3,0.8-19.8,3.7-28.3,9.5
		c-1.6,1.1-3.1,3.4-4.9,3.2c-1.8-0.2-3.5-2-5.2-3.2c-11.5-8.1-24.2-10.9-38-9.1c-3.2,0.4-6.5,0.5-9.6,1.6c-10,3.7-18.2,10-25.3,17.8
		c-9.3,10.3-13.5,22.5-12.5,35.7c-0.1,5.4-0.1,10,0.6,14.5c2,13.2,7.9,24.8,16.2,35.1c7.5,9.3,15.4,18.2,24.5,26
		c17.1,14.7,34.5,29.1,50.4,45.2c1.2,1.3,1.9,1,3-0.1c4.1-4.2,8.3-8.3,12.4-12.5c12-12.2,25.7-22.4,38.7-33.5
		c11.3-9.7,21.3-20.6,29.4-33.2c3.6-5.7,7-11.6,8.1-18.4C313.1,212.3,313.7,203.4,313.4,194.4z M277.6,208.7c-0.9,1.8-1.1,4-1.6,6
		c-1.6,6.2-5.2,11.3-9.5,15.9c-6.8,7.3-13.7,14.7-21.7,20.8c-8.5,6.5-16.1,14-24.2,21c-1.1,1-1.7,1.3-3,0.1
		c-9.6-9.4-20.7-17.1-30.8-25.9c-6.4-5.6-12.7-11.5-18.2-18c-3.4-4-6.3-8.6-7.8-13.7c-1.8-6.4-4-12.8-3.3-17.7
		c0.1-6.5,1.5-10.6,5.2-13.6c2.2-1.9,4.3-3.9,6.5-5.7c7.9-6.3,16.1-5.9,24.5-1.2c7,3.9,11.5,10.2,15.6,16.8c2.9,4.7,5.9,9.3,8.7,14
		c0.9,1.6,1.4,1.3,2.2,0c3.5-5.7,7.1-11.3,10.6-17c4.6-7.5,10.6-13.2,19.1-16.2c4-1.4,8-1.5,11.8-0.3c9.8,3.3,16.2,10,17.5,20.4
		C279.8,199,279.9,204.1,277.6,208.7z"/>
	<path class="st0" d="M313.4,194.4c-0.2-8.8-2.3-17.1-7.5-24.1c-13.3-17.9-30.1-29.5-53.7-27.7c-10.3,0.8-19.8,3.7-28.3,9.5
		c-1.6,1.1-3.1,3.4-4.9,3.2c-1.8-0.2-3.5-2-5.2-3.2c-11.5-8.1-24.2-10.9-38-9.1c-3.2,0.4-6.5,0.5-9.6,1.6c-10,3.7-18.2,10-25.3,17.8
		c-9.3,10.3-13.5,22.5-12.5,35.7c-0.1,5.4-0.1,10,0.6,14.5c2,13.2,7.9,24.8,16.2,35.1c7.5,9.3,15.4,18.2,24.5,26
		c17.1,14.7,34.5,29.1,50.4,45.2c1.2,1.3,1.9,1,3-0.1c4.1-4.2,8.3-8.3,12.4-12.5c12-12.2,25.7-22.4,38.7-33.5
		c11.3-9.7,21.3-20.6,29.4-33.2c3.6-5.7,7-11.6,8.1-18.4C313.1,212.3,313.7,203.4,313.4,194.4z M277.6,208.7c-0.9,1.8-1.1,4-1.6,6
		c-1.6,6.2-5.2,11.3-9.5,15.9c-6.8,7.3-13.7,14.7-21.7,20.8c-8.5,6.5-16.1,14-24.2,21c-1.1,1-1.7,1.3-3,0.1
		c-9.6-9.4-20.7-17.1-30.8-25.9c-6.4-5.6-12.7-11.5-18.2-18c-3.4-4-6.3-8.6-7.8-13.7c-1.8-6.4-4-12.8-3.3-17.7
		c0.1-6.5,1.5-10.6,5.2-13.6c2.2-1.9,4.3-3.9,6.5-5.7c7.9-6.3,16.1-5.9,24.5-1.2c7,3.9,11.5,10.2,15.6,16.8c2.9,4.7,5.9,9.3,8.7,14
		c0.9,1.6,1.4,1.3,2.2,0c3.5-5.7,7.1-11.3,10.6-17c4.6-7.5,10.6-13.2,19.1-16.2c4-1.4,8-1.5,11.8-0.3c9.8,3.3,16.2,10,17.5,20.4
		C279.8,199,279.9,204.1,277.6,208.7z"/>
</g>
</svg>
