<?xml version="1.0" encoding="utf-8"?>
<!-- Generator: Adobe Illustrator 20.1.0, SVG Export Plug-In . SVG Version: 6.00 Build 0)  -->
<svg version="1.1" id="Calque_1" xmlns="http://www.w3.org/2000/svg" xmlns:xlink="http://www.w3.org/1999/xlink" x="0px" y="0px"
	 viewBox="0 0 465.1 465.2" style="enable-background:new 0 0 465.1 465.2;" xml:space="preserve">
<style type="text/css">
	.st0{fill:#5EA7DB;}
	.st1{fill:#FFFEFE;}
</style>
<g>
	<path class="st0" d="M344.1,238c-2.3,6.8-8.5,11.4-15.6,11.4c-25.5,0-50.9,0.1-76.4,0c-2.3,0-2.8,0.6-2.8,2.8
		c0.1,12.8,0,25.6,0,38.4c0,12.7,0,25.3,0,38c0,7.6-4.9,13.8-12.4,15.8c-7.5,2-14.8-1-18.6-7c-1.9-3-2.7-6.3-2.7-9.8
		c0-25.1,0-50.2,0.1-75.2c0-2.3-0.5-2.9-2.9-2.9c-24.9,0.1-49.8,0.1-74.8,0.1c-10,0-16.3-5.3-17.9-15.2c-1.4-8.4,5.5-17.5,13.9-18.4
		c2.1-0.2,4.3-0.3,6.4-0.4c24.2,0,48.3,0,72.5,0c2.1,0,2.7-0.5,2.7-2.6c-0.1-25.1-0.1-50.2,0-75.2c0-10.7,7.4-17.9,18.1-17.6
		c8,0.2,15.4,7.4,15.6,15.4c0.2,7.9,0.1,15.8,0.1,23.7c0,17.9,0,35.9,0,53.8c0,2.1,0.6,2.5,2.6,2.5c24.7-0.1,49.4-0.1,74.1,0
		c4.5,0,8.8,0.8,12.5,3.7C344.1,223.5,346.4,231.2,344.1,238z"/>
	<path class="st0" d="M232.6,0C106.1-0.3,0.1,102.5,0,232.3c-0.1,128.6,103.9,232.8,232.6,232.8c129.1,0,232.5-105,232.6-232.3
		C465.3,103.9,360-0.3,232.6,0z M227.3,439.1C118.3,436.4,25.8,346.4,26,232.4C25.8,119.1,118.8,27.1,232.7,27.2
		c112.2,0.1,206.5,91,206.5,205.7C439.1,347.8,343.8,441.9,227.3,439.1z"/>
	<path class="st1" d="M344.1,238c-2.3,6.8-8.5,11.4-15.6,11.4c-25.5,0-50.9,0.1-76.4,0c-2.3,0-2.8,0.6-2.8,2.8
		c0.1,12.8,0,25.6,0,38.4c0,12.7,0,25.3,0,38c0,7.6-4.9,13.8-12.4,15.8c-7.5,2-14.8-1-18.6-7c-1.9-3-2.7-6.3-2.7-9.8
		c0-25.1,0-50.2,0.1-75.2c0-2.3-0.5-2.9-2.9-2.9c-24.9,0.1-49.8,0.1-74.8,0.1c-10,0-16.3-5.3-17.9-15.2c-1.4-8.4,5.5-17.5,13.9-18.4
		c2.1-0.2,4.3-0.3,6.4-0.4c24.2,0,48.3,0,72.5,0c2.1,0,2.7-0.5,2.7-2.6c-0.1-25.1-0.1-50.2,0-75.2c0-10.7,7.4-17.9,18.1-17.6
		c8,0.2,15.4,7.4,15.6,15.4c0.2,7.9,0.1,15.8,0.1,23.7c0,17.9,0,35.9,0,53.8c0,2.1,0.6,2.5,2.6,2.5c24.7-0.1,49.4-0.1,74.1,0
		c4.5,0,8.8,0.8,12.5,3.7C344.1,223.5,346.4,231.2,344.1,238z"/>
	<path class="st0" d="M344.1,238c-2.3,6.8-8.5,11.4-15.6,11.4c-25.5,0-50.9,0.1-76.4,0c-2.3,0-2.8,0.6-2.8,2.8
		c0.1,12.8,0,25.6,0,38.4c0,12.7,0,25.3,0,38c0,7.6-4.9,13.8-12.4,15.8c-7.5,2-14.8-1-18.6-7c-1.9-3-2.7-6.3-2.7-9.8
		c0-25.1,0-50.2,0.1-75.2c0-2.3-0.5-2.9-2.9-2.9c-24.9,0.1-49.8,0.1-74.8,0.1c-10,0-16.3-5.3-17.9-15.2c-1.4-8.4,5.5-17.5,13.9-18.4
		c2.1-0.2,4.3-0.3,6.4-0.4c24.2,0,48.3,0,72.5,0c2.1,0,2.7-0.5,2.7-2.6c-0.1-25.1-0.1-50.2,0-75.2c0-10.7,7.4-17.9,18.1-17.6
		c8,0.2,15.4,7.4,15.6,15.4c0.2,7.9,0.1,15.8,0.1,23.7c0,17.9,0,35.9,0,53.8c0,2.1,0.6,2.5,2.6,2.5c24.7-0.1,49.4-0.1,74.1,0
		c4.5,0,8.8,0.8,12.5,3.7C344.1,223.5,346.4,231.2,344.1,238z"/>
</g>
</svg>
