<?xml version="1.0" encoding="utf-8"?>
<!-- Generator: Adobe Illustrator 20.1.0, SVG Export Plug-In . SVG Version: 6.00 Build 0)  -->
<svg version="1.1" id="Calque_1" xmlns="http://www.w3.org/2000/svg" xmlns:xlink="http://www.w3.org/1999/xlink" x="0px" y="0px"
	 viewBox="0 0 567.2 460.8" style="enable-background:new 0 0 567.2 460.8;" xml:space="preserve">
<style type="text/css">
	.st0{fill:#6799CA;}
	.st1{fill:#FEFEFE;}
	.st2{fill:#6899CA;}
</style>
<g>
	<path class="st0" d="M374.4,372.7c-1.5,0.2-3,0.3-4.5,0.3h-139c-46.7,0-93.4,0-140.2,0c-5.4,0-10.3-1.2-14.3-5
		c-5.9-5.5-7.2-14.5-3.4-22.3c10.9-21.9,21.9-43.8,32.8-65.7C129.9,232,154,183.8,178,135.6c2.9-5.8,7.2-10,13.7-11.1
		c7.8-1.4,14,1.5,18.4,8.1c14.8,22.2,29.6,44.6,44.3,66.9c4.3,6.5,8.6,12.9,12.8,19.4c0.9,1.4,1.4,1.4,2.6,0.2
		c6-6.2,12.2-12.2,18.3-18.3c7.2-7.2,18.2-7.5,25.7-0.6c1.6,1.5,2.8,3.3,3.7,5.2c10.3,20.6,20.7,41.3,31,61.9
		c13.2,26.4,26.4,52.9,39.8,79.2C393.3,356,387.2,371.1,374.4,372.7z"/>
	<path class="st0" d="M496.1,159.8c-0.1,39.8-32.7,71.3-71.3,71c-38.3,0.3-71.1-30.9-71.2-71.2c0-40.2,32.9-71.3,71.5-71.2
		C463.4,88.6,496.2,119.7,496.1,159.8z"/>
	<path class="st0" d="M567.2,94.2c0-5.9-0.3-11.8-1.5-17.7c-6.1-30.3-22.8-52.7-50.3-66.8C501.9,2.8,487.5,0,472.5,0
		C347.8,0,223,0,98.3,0c-3.8,0-7.6,0-11.3,0.3C75.5,1,64.5,3.5,54.3,8.6c-34.9,17.5-53.8,45.8-54,85c-0.4,91.2-0.1,182.5-0.1,273.7
		c0,6,0.4,12,1.6,17.8c5.8,28.4,21.3,49.7,46.4,64c14.3,8.1,29.9,11.7,46.4,11.7c63.1,0,126.2,0,189.3,0c63.1,0,126.1,0,189.2,0
		c4.7,0,9.3-0.2,13.9-0.9c20.1-2.9,37.6-11.4,52.1-25.7c18.9-18.6,28.1-41.4,28.2-67.9C567.2,275.6,567.2,184.9,567.2,94.2z
		 M542.1,353.6c-0.2,31.7-15.3,55.6-42.5,71.8c-11.4,6.8-23.9,10.3-37.1,11c-2.8,0.2-5.5,0.2-8.3,0.2c-56.8,0-113.6,0-170.4,0
		c-58.1,0-116.1,0.1-174.2,0c-37-0.1-68.8-22.9-80.4-56.8c-2.9-8.4-4.3-17.1-4.3-26c0-82.5-0.3-165.1,0.1-247.6
		c0.2-31.8,15.4-55.6,42.6-71.7c13.1-7.7,27.5-11,42.6-11c116.1,0,232.2,0,348.2,0c39,0,73.2,27.2,81.8,65.3c1.3,5.8,2,11.7,2,17.6
		C542.3,188.8,542.6,271.2,542.1,353.6z"/>
	<path class="st1" d="M374.4,372.7c-1.5,0.2-3,0.3-4.5,0.3h-139c-46.7,0-93.4,0-140.2,0c-5.4,0-10.3-1.2-14.3-5
		c-5.9-5.5-7.2-14.5-3.4-22.3c10.9-21.9,21.9-43.8,32.8-65.7C129.9,232,154,183.8,178,135.6c2.9-5.8,7.2-10,13.7-11.1
		c7.8-1.4,14,1.5,18.4,8.1c14.8,22.2,29.6,44.6,44.3,66.9c4.3,6.5,8.6,12.9,12.8,19.4c0.9,1.4,1.4,1.4,2.6,0.2
		c6-6.2,12.2-12.2,18.3-18.3c7.2-7.2,18.2-7.5,25.7-0.6c1.6,1.5,2.8,3.3,3.7,5.2c10.3,20.6,20.7,41.3,31,61.9
		c13.2,26.4,26.4,52.9,39.8,79.2C393.3,356,387.2,371.1,374.4,372.7z"/>
	<path class="st1" d="M496.1,159.8c-0.1,39.8-32.7,71.3-71.3,71c-38.3,0.3-71.1-30.9-71.2-71.2c0-40.2,32.9-71.3,71.5-71.2
		C463.4,88.6,496.2,119.7,496.1,159.8z"/>
	<path class="st0" d="M374.4,372.7c-1.5,0.2-3,0.3-4.5,0.3h-139c-46.7,0-93.4,0-140.2,0c-5.4,0-10.3-1.2-14.3-5
		c-5.9-5.5-7.2-14.5-3.4-22.3c10.9-21.9,21.9-43.8,32.8-65.7C129.9,232,154,183.8,178,135.6c2.9-5.8,7.2-10,13.7-11.1
		c7.8-1.4,14,1.5,18.4,8.1c14.8,22.2,29.6,44.6,44.3,66.9c4.3,6.5,8.6,12.9,12.8,19.4c0.9,1.4,1.4,1.4,2.6,0.2
		c6-6.2,12.2-12.2,18.3-18.3c7.2-7.2,18.2-7.5,25.7-0.6c1.6,1.5,2.8,3.3,3.7,5.2c10.3,20.6,20.7,41.3,31,61.9
		c13.2,26.4,26.4,52.9,39.8,79.2C393.3,356,387.2,371.1,374.4,372.7z"/>
	<path class="st2" d="M496.1,159.8c-0.1,39.8-32.7,71.3-71.3,71c-38.3,0.3-71.1-30.9-71.2-71.2c0-40.2,32.9-71.3,71.5-71.2
		C463.4,88.6,496.2,119.7,496.1,159.8z"/>
</g>
</svg>
