<svg width="71.5" height="42.58" xmlns="http://www.w3.org/2000/svg">
 <title>Objet dynamique vectoriel1</title>
 
 <g>
  <title>Layer 1</title>
  <path id="svg_1" d="m63,20.68a12.34,12.34 0 0 0 -9.22,-20.58a12.45,12.45 0 0 0 -12.39,12.37a12.3,12.3 0 0 0 3.16,8.21a14.09,14.09 0 0 0 -8.55,12.87l0,7.45a1.56,1.56 0 0 0 1.6,1.58l32.32,0a1.56,1.56 0 0 0 1.58,-1.58l0,-7.45a13.93,13.93 0 0 0 -8.5,-12.87m5.37,18.75l-29.19,0l0,-5.88a10.77,10.77 0 0 1 8.21,-10.48a12.31,12.31 0 0 0 6.38,1.83a12.14,12.14 0 0 0 6.38,-1.83a10.82,10.82 0 0 1 8.21,10.48l0,5.87l0.01,0.01zm-23.86,-27a9.22,9.22 0 1 1 9.22,9.22a9.23,9.23 0 0 1 -9.22,-9.22"/>
  <path id="svg_2" d="m16,28.79a1.5,1.5 0 0 1 -1,-2.61l17,-17a1.5,1.5 0 1 1 2.12,2.12l-17,17a1.5,1.5 0 0 1 -1.12,0.49z"/>
  <polygon id="svg_3" points="17.39 8.59 17.49 11.59 32.28 11.04 31.74 25.83 34.74 25.93 35.39 7.93 17.39 8.59"/>
  <path id="svg_4" d="m2.3,20.05a1.5,1.5 0 0 1 -1.06,-2.56l17,-17a1.5,1.5 0 0 1 2.12,2.12l-17,17a1.5,1.5 0 0 1 -1.06,0.44z"/>
  <polygon id="svg_5" points="18 20.2 17.9 17.2 3.12 17.74 3.65 2.95 0.65 2.85 0 20.85 18 20.2"/>
 </g>
</svg>