<?xml version="1.0" encoding="utf-8"?>
<!-- Generator: Adobe Illustrator 21.1.0, SVG Export Plug-In . SVG Version: 6.00 Build 0)  -->
<svg version="1.1" id="Calque_1" xmlns="http://www.w3.org/2000/svg" xmlns:xlink="http://www.w3.org/1999/xlink" x="0px" y="0px"
	 viewBox="0 0 86 84.1" style="enable-background:new 0 0 86 84.1;" xml:space="preserve">
<style type="text/css">
	.st0{fill:#6598CC;}
</style>
<g transform="translate(0,-952.36218)">
	<path class="st0" d="M11,952.4c-1.7,0-3,1.4-3,3c0,0,0,0,0,0v43.4c-4.6,1.3-8,5.6-8,10.6c0,5,3.4,9.2,8,10.6v13.4c0,1.7,1.3,3,3,3
		s3-1.3,3-3c0,0,0-0.1,0-0.1V1020c4.6-1.3,8-5.6,8-10.6c0-5-3.4-9.2-8-10.6v-43.4C14.1,953.8,12.7,952.4,11,952.4
		C11.1,952.4,11,952.4,11,952.4z M43,952.4c-1.7,0-3,1.4-3,3c0,0,0,0,0,0v13.4c-4.6,1.3-8,5.6-8,10.6c0,5,3.4,9.2,8,10.6v43.4
		c0,1.7,1.3,3,3,3c1.7,0,3-1.3,3-3c0,0,0-0.1,0-0.1V990c4.6-1.3,8-5.6,8-10.6c0-5-3.4-9.2-8-10.6v-13.4
		C46.1,953.8,44.7,952.4,43,952.4C43.1,952.4,43,952.4,43,952.4z M75,952.4c-1.7,0-3,1.4-3,3c0,0,0,0,0,0v43.4
		c-4.6,1.3-8,5.6-8,10.6c0,5,3.4,9.2,8,10.6v13.4c0,1.7,1.3,3,3,3s3-1.3,3-3c0,0,0-0.1,0-0.1V1020c4.6-1.3,8-5.6,8-10.6
		c0-5-3.4-9.2-8-10.6v-43.4C78.1,953.8,76.7,952.4,75,952.4C75.1,952.4,75,952.4,75,952.4z M43,974.4c2.8,0,5,2.2,5,5s-2.2,5-5,5
		s-5-2.2-5-5S40.2,974.4,43,974.4z M11,1004.4c2.8,0,5,2.2,5,5s-2.2,5-5,5s-5-2.2-5-5S8.2,1004.4,11,1004.4z M75,1004.4
		c2.8,0,5,2.2,5,5c0,2.8-2.2,5-5,5s-5-2.2-5-5C70,1006.6,72.2,1004.4,75,1004.4z"/>
</g>
</svg>
