<?xml version="1.0" encoding="utf-8"?>
<!-- Generator: Adobe Illustrator 20.1.0, SVG Export Plug-In . SVG Version: 6.00 Build 0)  -->
<svg version="1.1" id="Calque_1" xmlns="http://www.w3.org/2000/svg" xmlns:xlink="http://www.w3.org/1999/xlink" x="0px" y="0px"
	 viewBox="0 0 397.3 450.3" style="enable-background:new 0 0 397.3 450.3;" xml:space="preserve">
<style type="text/css">
	.st0{fill:#2D97C6;}
</style>
<g>
	<path class="st0" d="M397.3,273.4V108.7c0-8.3-3.8-12.2-12.2-12.2h-41.6c-17.1,0-34.3,0-51.4,0c-1.8,0-2.4-0.5-2.5-2.2
		c-0.2-2.9-0.7-5.8-1.3-8.6C278.7,37,234.9,0.6,185.2,0c-6.7-0.1-12,4.8-11.9,11.8c0.2,27.3,0.1,54.7,0.1,82c0,3.1,0.3,2.7-2.7,2.7
		c-52.8,0-105.7,0-158.5,0c-1.2,0-2.4,0-3.6,0.2C3.1,97.9,0,102,0,108.2v283c0,0.5,0,1,0,1.5c0.2,5,3.6,9.1,8.6,9.9
		c4.3,0.7,8.5,1.1,12.8,1.7c9.5,1.2,19.1,2.4,28.6,3.6c9.5,1.2,18.9,2.4,28.4,3.6c9.6,1.2,19.2,2.4,28.8,3.6
		c10.6,1.3,21.2,2.7,31.8,4c10.7,1.3,21.3,2.6,32,4c10.6,1.4,21.2,2.8,31.7,4.1c10.7,1.3,21.3,2.6,32,4c10.7,1.3,21.3,2.7,32,4.1
		c10.6,1.3,21.3,2.7,32,4c10.8,1.4,21.6,2.7,32.4,4.1c9.6,1.2,19.2,2.5,28.8,3.7c8.8,1.1,17.5,2.2,26.3,3.3c2.8,0.3,5.3-0.5,7.4-2.3
		c2.9-2.4,3.9-5.6,3.8-9.3C397.3,383.6,397.3,328.5,397.3,273.4z M196,21.7c27,4.2,47.5,18.1,61.7,41.3
		c7.1,11.6,10.9,24.3,11.8,37.9c0.2,3.3,0.3,6.7,0.3,10c0,34.5,0,69.1,0,103.7v2.9c-6.3-8.4-13.1-15.5-20.9-21.6
		c-14.8-11.5-31.5-18.6-50-21.1c-0.5-0.1-1-0.2-1.5-0.3c-3.6-0.5-3.6-0.5-3.6-4.3c0-48.8,0-97.7,0-146.6
		C193.9,21.9,194,21.3,196,21.7z M22.9,366.5c-2.1,0-2.4-0.7-2.4-2.5c0-40.7,0-81.4,0-122.2V120.1c0-2.8,0-2.8,2.7-2.8h147.4
		c2.7,0,2.7,0,2.7,2.8c0,21,0,41.9,0,62.9c0,5.5,3,9.7,7.8,10.8c1.8,0.4,3.7,0.5,5.5,0.5c39.3,1,74.7,30,81.8,70.7
		c4.5,25.7-2.6,48.7-18.8,68.8c-14.2,17.5-32.7,28-55,31.8c-4.6,0.8-9.3,1-14,1C128.1,366.4,75.5,366.4,22.9,366.5z M376.6,427.7
		c0,1.5-0.2,2-2,1.8c-11.1-1.6-22.2-3-33.4-4.5c-12.2-1.6-24.4-3.3-36.5-4.9c-12.2-1.6-24.4-3.2-36.5-4.8
		c-11.2-1.5-22.4-3.1-33.6-4.5c-12.2-1.6-24.4-3.2-36.5-4.8c-12.1-1.6-24.2-3.3-36.3-4.9c-10-1.3-20-2.7-30-4
		c-10.1-1.4-20.2-2.7-30.2-4.1c-10.1-1.3-20.2-2.7-30.2-4c-3.3-0.4-6.7-0.9-10-1.4c0-0.1,0-0.2,0.1-0.3h2.1c103.5,0,207,0,310.5,0
		c2.2,0,2.8,0.5,2.8,2.8C376.5,402.5,376.5,415.1,376.6,427.7z M376.6,121c-0.1,0.3,0,0.7,0,1.1c0,80.8,0,161.6,0,242.4
		c0,3.2,0.4,2.8-2.8,2.8c-41.4,0-82.9,0-124.3,0h-2.8c3.6-2.8,6.6-5.3,9.5-8c5.9-5.4,11.1-11.3,15.5-18c0.8-1.2,1.6-1.7,3.1-1.6
		c24,0,48,0,72,0c3,0,5.8-0.6,8.1-2.6c3.4-3,4.5-7.3,3-11.3c-1.6-4.1-5.5-6.8-10.3-6.8c-15.6,0-31.2,0-46.7,0c-4.9,0-9.8-0.1-14.7,0
		c-1.9,0-2.3-0.3-1.7-2.2c1.9-5.6,3.9-11.1,4.8-16.9c0.7-4.4,0.8-4.4,5.3-4.4c17.5,0,35,0,52.5,0c5.9,0,10.5-3.6,11.2-8.6
		c1-6.6-3.9-12.1-10.9-12.1c-18,0-36,0-54,0c-3.2,0-2.8,0.3-2.8-2.8c0-6.1,0.1-12.2,0-18.3c0-1.8,0.4-2.4,2.3-2.4c18,0.1,36,0,54,0
		c3,0,5.8-0.6,8-2.7c3.4-3.1,4.5-7.4,2.9-11.4c-1.6-4-5.5-6.7-10.2-6.7c-13.4,0-26.8,0-40.2,0c-5,0-10.1,0-15.1,0
		c-1.4,0-1.8-0.4-1.8-1.8c0.1-6.6,0.1-13.2,0-19.8c0-1.7,0.6-1.9,2.1-1.9c18,0,36.1,0,54.2,0c3,0,5.8-0.6,8-2.7
		c3.4-3.1,4.5-7.4,2.9-11.4c-1.6-4-5.5-6.7-10.2-6.7c-10.8,0-21.7,0-32.5,0c-7.5,0-15,0-22.5,0c-1.6,0-2-0.4-2-2
		c0.1-6.4,0.1-12.8,0-19.1c0-1.8,0.4-2.4,2.3-2.4c18,0.1,36,0,54,0.1c3,0,5.8-0.6,8-2.7c3.4-3.1,4.5-7.4,2.9-11.4
		c-1.6-4-5.5-6.7-10.2-6.7c-10.8,0-21.7,0-32.5,0c-7.5,0-15,0-22.5,0c-1.6,0-2.1-0.4-2-2c0.1-6.4,0.1-12.7,0-19.1
		c0-1.4,0.4-1.8,1.8-1.8c27.5,0,55,0,82.4,0C376.2,119.2,376.8,119.6,376.6,121z"/>
</g>
</svg>
