<?xml version="1.0" encoding="utf-8"?>
<!-- Generator: Adobe Illustrator 21.1.0, SVG Export Plug-In . SVG Version: 6.00 Build 0)  -->
<svg version="1.1" id="Capa_1" xmlns="http://www.w3.org/2000/svg" xmlns:xlink="http://www.w3.org/1999/xlink" x="0px" y="0px"
	 viewBox="0 0 193.3 202.3" style="enable-background:new 0 0 193.3 202.3;" xml:space="preserve">
<style type="text/css">
	.st0{fill:#6599CD;}
</style>
<g id="diary_2_1_">
	<path class="st0" d="M44.1,198.9c-11.1-5.4-18.7-16.7-18.7-29.8v-4.7H12.7c-7,0-12.6-5.7-12.6-12.6c0-7,5.7-12.7,12.6-12.7h12.7
		v-25.2H12.7c-7,0-12.6-5.7-12.6-12.6c0-7,5.7-12.6,12.6-12.6h12.7V63.2H12.7c-7,0-12.6-5.7-12.6-12.6c0-7,5.7-12.6,12.6-12.6h12.7
		v-4.8c0-13.2,7.8-24.6,18.9-29.9L44.1,198.9z"/>
	<path class="st0" d="M160,0.1H66.9v202.2H160c18.3,0,33.2-14.8,33.2-33.2V33.2C193.2,14.9,178.4,0.1,160,0.1z M174.7,156.2
		c0,14.8-10.4,26.8-23.2,26.8H86.4V19.7h65.2c12.8,0,23.2,12,23.2,26.8V156.2z"/>
</g>
</svg>
