<?xml version="1.0" encoding="utf-8"?>
<!-- Generator: Adobe Illustrator 21.1.0, SVG Export Plug-In . SVG Version: 6.00 Build 0)  -->
<svg version="1.1" id="Capa_1" xmlns="http://www.w3.org/2000/svg" xmlns:xlink="http://www.w3.org/1999/xlink" x="0px" y="0px"
	 viewBox="0 0 990.7 988.2" style="enable-background:new 0 0 990.7 988.2;" xml:space="preserve">
<style type="text/css">
	.st0{fill:#6497CC;}
</style>
<g>
	<path class="st0" d="M95.3,456.3h265.8c52.4,0,95-42.6,95-95V95.5c0-52.4-42.6-95-95-95H95.3c-52.4,0-95,42.6-95,95v265.8
		C0.3,413.6,43,456.3,95.3,456.3z M70.3,95.5c0-13.8,11.2-25,25-25h265.8c13.8,0,25,11.2,25,25v265.8c0,13.8-11.2,25-25,25H95.3
		c-13.8,0-25-11.2-25-25V95.5z"/>
	<path class="st0" d="M895.3,0.5H629.6c-52.4,0-95,42.6-95,95v265.8c0,52.4,42.6,95,95,95h265.8c52.4,0,95-42.6,95-95V95.5
		C990.3,43.1,947.7,0.5,895.3,0.5z M920.3,361.3c0,13.8-11.2,25-25,25H629.6c-13.8,0-25-11.2-25-25V95.5c0-13.8,11.2-25,25-25h265.8
		c13.8,0,25,11.2,25,25V361.3z"/>
	<path class="st0" d="M95.3,988.1h265.8c52.4,0,95-42.6,95-95V627.4c0-52.4-42.6-95-95-95H95.3c-52.4,0-95,42.6-95,95v265.8
		C0.3,945.5,43,988.1,95.3,988.1z M70.3,627.4c0-13.8,11.2-25,25-25h265.8c13.8,0,25,11.2,25,25v265.8c0,13.8-11.2,25-25,25H95.3
		c-13.8,0-25-11.2-25-25V627.4z"/>
	<path class="st0" d="M895.3,532.4H629.6c-52.4,0-95,42.6-95,95v265.8c0,52.4,42.6,95,95,95h265.8c52.4,0,95-42.6,95-95V627.4
		C990.3,575,947.7,532.4,895.3,532.4z M920.3,893.1c0,13.8-11.2,25-25,25H629.6c-13.8,0-25-11.2-25-25V627.4c0-13.8,11.2-25,25-25
		h265.8c13.8,0,25,11.2,25,25V893.1z"/>
</g>
</svg>
