<?xml version="1.0" encoding="utf-8"?>
<!-- Generator: Adobe Illustrator 20.1.0, SVG Export Plug-In . SVG Version: 6.00 Build 0)  -->
<svg version="1.1" id="Calque_1" xmlns="http://www.w3.org/2000/svg" xmlns:xlink="http://www.w3.org/1999/xlink" x="0px" y="0px"
	 viewBox="0 0 462.2 462.1" style="enable-background:new 0 0 462.2 462.1;" xml:space="preserve">
<style type="text/css">
	.st0{fill:#5DA7DB;}
	.st1{fill:#FFFFFF;}
</style>
<g>
	<path class="st0" d="M231,0C106.3-0.4,1.7,100.1,0,227.9c-1.7,128.9,101.2,232.5,227.8,234.2c129.9,1.8,233.5-102.9,234.4-229.4
		C463,104.5,359.1-0.4,231,0z M191.1,284.6c0,1.9-0.5,2.4-2.4,2.4c-9.4-0.1-18.8,0-28.1,0c-0.7,0-1.5,0.2-2-0.4
		c0-29.3,0-58.6,0-87.9c0-3,0-6,0-9l0,0c10.7,0,21.4,0,32,0c0.6,0.6,0.3,1.4,0.3,2C191.1,222.6,191.1,253.6,191.1,284.6z
		 M192.1,161.4c-0.4,8.7-5.9,14.2-14.6,16c-1.9,0.4-3.9,0.1-5.8,0.1c-0.6-0.5-1.3-0.3-2-0.4c-9.1-1.5-14.7-10.5-13.1-19.4
		c1.4-8.3,7.2-13.3,15.7-13.8c4.8-0.3,9.5,0.3,13.6,3.3C190.6,150.7,192.4,155.8,192.1,161.4z M306,284.2c0,2.8,0,2.8-2.7,2.8
		c-9.2,0-18.5,0-27.8,0c-1.7,0-2.1-0.5-2.1-2.1c0-14.2,0.1-28.4,0-42.6c0-5.3,0.1-10.5-1-15.7c-1.9-8.6-6.3-12.9-14.9-13.3
		c-7.7-0.4-13.9,3.4-17.2,11.3c-1.3,3.1-1.5,6.3-1.5,9.6c0,16.9-0.1,33.7,0,50.6c0,1.8-0.5,2.3-2.3,2.3c-9.4-0.1-18.8-0.1-28.1,0
		c-1.7,0-2.2-0.3-2.2-2.1c0.1-31.7,0-63.4,0-95.2c10.8,0,21.6,0,32.5-0.1l0,0c0,0.5,0,1,0,1.5v10.3c0,0.6-0.1,1.4,0.7,0.3
		c4.2-6.2,9.7-10.6,16.9-12.9c1.1,0,2.2-0.3,3.2-0.7c1.3-0.2,2.6-0.3,3.9-0.5c0.8,0,1.6,0.2,2.4-0.3c1.2,0,2.5,0,3.7,0h0
		c0,0,0,0,0,0c0.6,0.4,1.3,0.3,2,0.3c1.3,0.2,2.5,0.6,3.9,0.5c0.9,0.4,1.8,0.6,2.8,0.7c2.5,0.9,5,1.8,7.5,2.8
		c0.8,0.4,1.5,0.9,2.3,1.3c2.3,1.8,4.7,3.6,7,5.4c0.7,0.8,1.4,1.5,2,2.3c4.3,5.7,6.8,12.2,7.9,19.3c0,0.2,0.2,0.5,0.3,0.7
		c0.1,0.9-0.1,1.8,0.3,2.7c0,0,0,0.1,0.1,0.1c0,0.6,0.1,1.3,0.1,1.9c0,1.1-0.2,2.2,0.3,3.2C306,247,306,265.6,306,284.2z"/>
	<path class="st1" d="M238.8,189.7c-10.8,0-21.6,0-32.5,0.1c0.4-0.3,0.9-0.2,1.3-0.2c10,0,20,0,30,0
		C238.1,189.5,238.5,189.4,238.8,189.7z"/>
	<path class="st1" d="M238.9,201.1v-9.9c0-0.5,0-1,0-1.5c0.3,3.5,0,7,0.2,10.6C239,200.5,238.9,200.8,238.9,201.1z"/>
	<path class="st1" d="M239.6,201.8c-0.7,1.1-0.7,0.3-0.7-0.3v-0.4C238.9,201.4,239,201.7,239.6,201.8z"/>
	<path class="st1" d="M259.6,188.2c-1,0.5-2.1,0.7-3.2,0.7C257.4,188.2,258.5,188.1,259.6,188.2z"/>
	<path class="st1" d="M265.9,187.4c-0.8,0.5-1.6,0.3-2.4,0.3C264.3,187.3,265.1,187.8,265.9,187.4z"/>
	<path class="st1" d="M271.6,187.6c-0.7,0-1.4,0.2-2-0.3C270.3,187.7,271,187.4,271.6,187.6z"/>
	<path class="st1" d="M278.3,188.8c-1,0-1.9-0.3-2.8-0.7C276.5,188,277.4,188.5,278.3,188.8z"/>
	<path class="st1" d="M288.1,192.9c-0.8-0.4-1.5-0.8-2.3-1.3C286.6,192,287.6,191.9,288.1,192.9z"/>
	<path class="st1" d="M297.1,200.6c-0.7-0.8-1.4-1.5-2-2.3C296.2,198.7,296.7,199.5,297.1,200.6z"/>
	<path class="st1" d="M305.6,223.2c-0.4-0.8-0.2-1.8-0.3-2.7C306.2,221.3,305.2,222.4,305.6,223.2z"/>
	<path class="st1" d="M306,228.5c-0.5-1-0.3-2.1-0.3-3.2C306.1,226.3,305.6,227.4,306,228.5z"/>
	<path class="st1" d="M158.6,189.7c0,3,0,6,0,9c0,29.3,0,58.6,0,87.9c-0.1-0.6-0.1-1.3-0.1-2v-92.8
		C158.5,191.1,158.3,190.4,158.6,189.7z"/>
	<path class="st1" d="M190.7,189.6c-10.7,0-21.4,0-32,0c0.4-0.2,0.9-0.2,1.3-0.2c9.9,0,19.7,0,29.6,0
		C189.9,189.5,190.3,189.4,190.7,189.6z"/>
	<path class="st1" d="M171.7,177.5c-0.6-0.4-1.4,0.2-2-0.4C170.3,177.2,171,177.1,171.7,177.5z"/>
	<path class="st0" d="M158.6,189.7c0,3,0,6,0,9c0,29.3,0,58.6,0,87.9c-0.5-0.6-0.2-1.4-0.2-2.1c0-30.9,0-61.7,0-92.6
		C158.3,191.2,158,190.3,158.6,189.7z"/>
	<path class="st0" d="M238.8,189.7c-10.8,0-21.6,0-32.5,0.1c0.4-0.6,1.1-0.4,1.6-0.4c9.7,0,19.5,0,29.2,0
		C237.7,189.3,238.4,189.1,238.8,189.7z"/>
	<path class="st0" d="M190.7,189.6c-10.7,0-21.4,0-32,0c0.5-0.5,1.1-0.4,1.7-0.4c9.6,0,19.2,0,28.7,0
		C189.6,189.3,190.2,189.1,190.7,189.6z"/>
	<path class="st0" d="M239.6,201.8c-0.7,1.1-0.7,0.3-0.7-0.3v-10.3c0-0.5,0-1,0-1.5c0.7,1.2,0.2,2.5,0.3,3.8
		C239.4,196.2,238.8,199,239.6,201.8z"/>
	<path class="st0" d="M259.6,188.2c-1,0.5-2.1,0.7-3.2,0.7C257.3,187.8,258.1,186.7,259.6,188.2z"/>
	<path class="st0" d="M278.3,188.8c-1,0-1.9-0.3-2.8-0.7C276.9,186.3,277.4,188.3,278.3,188.8z"/>
	<path class="st0" d="M288.1,192.9c-0.8-0.4-1.5-0.8-2.3-1.3C286.9,191.3,288.2,190.8,288.1,192.9z"/>
	<path class="st0" d="M297.1,200.6c-0.7-0.8-1.4-1.5-2-2.3C297,198,297.2,199.1,297.1,200.6z"/>
	<path class="st0" d="M306,222.2c-0.3,0.4-0.3,0.8-0.4,1.2c0,0-0.1-0.1-0.1-0.1c-0.4-0.8-0.2-1.8-0.3-2.7
		C306.2,220.8,306.9,221.1,306,222.2z"/>
	<path class="st0" d="M306,228.5c-0.5-1-0.3-2.1-0.3-3.2C306.4,226.3,305.9,227.4,306,228.5z"/>
	<path class="st0" d="M265.9,187.4c-0.8,0.5-1.6,0.3-2.4,0.3C264.2,187.1,265.1,187.4,265.9,187.4z"/>
	<path class="st0" d="M171.7,177.5c-0.7-0.2-1.5,0.8-2-0.4C170.3,177.2,171,177.1,171.7,177.5z"/>
	<path class="st0" d="M271.6,187.6c-0.7,0-1.4,0.2-2-0.3c0,0,0,0,0,0C270.3,187.4,271,187.1,271.6,187.6z"/>
</g>
</svg>
