<?xml version="1.0" encoding="utf-8"?>
<!-- Generator: Adobe Illustrator 20.1.0, SVG Export Plug-In . SVG Version: 6.00 Build 0)  -->
<svg version="1.1" id="Calque_1" xmlns="http://www.w3.org/2000/svg" xmlns:xlink="http://www.w3.org/1999/xlink" x="0px" y="0px"
	 viewBox="0 0 462.4 462.3" style="enable-background:new 0 0 462.4 462.3;" xml:space="preserve">
<style type="text/css">
	.st0{fill:#60A6D6;}
</style>
<g>
	<path class="st0" d="M458.8,190.8c-3.5-19.9-9.5-39-18.1-57.2C426.4,103,406.4,76.9,380.8,55c-19.2-16.3-40.4-29.2-63.8-38.5
		C286,4.1,253.7-1.3,220.3,0.3c-8.9,0.4-17.6,1.3-26.4,2.7c-21.4,3.5-41.9,9.8-61.5,19.1c-26.6,12.6-49.9,29.7-70.1,51.1
		c-17.3,18.5-31.2,39.2-41.7,62.2C5.3,169.3-1.5,204.9,0.3,242.1c0.5,11.3,1.8,22.5,4,33.6c5.1,26,14.4,50.5,27.9,73.3
		c12.9,21.8,29,41,48.2,57.5c18.8,16.2,39.7,29,62.7,38.5c23.4,9.6,47.8,15.1,73,16.9c3,0.1,6.1,0.3,9.1,0.3
		c7.3,0.1,14.6,0.1,21.9-0.3c6.2-0.7,12.4-1.1,18.6-2.1c19-2.9,37.5-8,55.2-15.5c29.1-12.3,54.7-29.8,76.6-52.6
		c19.8-20.5,35.3-43.9,46.5-70.1c11.1-26,17.1-53.2,18.2-81.4C462.9,223.7,461.7,207.1,458.8,190.8z M288.8,223.1
		c-2.6,10.9-7.3,20.8-15.6,28.6c-9.2,8.6-20.1,12.4-32.7,11.3c-4.4-0.4-8.9-2.5-15.2-6.8c-1,4.1-2.1,8.2-3.1,12.2
		c-2.4,9.6-5.6,18.8-10.8,27.2c-1,1.7-2.4,3.2-3.9,4.5c-3.6,3.2-7.5,2.2-9-2.3c-1.6-4.8-1.4-9.8-1.1-14.8c0.9-15,5.7-29.3,8.8-43.9
		c1-4.5,2.1-8.9,3.2-13.3c0.3-1.3,0.2-2.5-0.2-3.9c-2.4-7.5-2.8-15.2,0.3-22.6c2.3-5.7,6.1-10.1,12.4-11.9
		c8.7-2.4,16.7,3.4,17.2,12.4c0.4,6.3-1.7,12.2-3.4,18.1c-1.3,4.6-2.9,9.2-3.9,14c-1.5,7,4.1,12.2,10.5,12.2
		c6.3,0,10.8-3.3,14.4-8.1c4.8-6.4,7.2-13.7,8.4-21.5c1-6.6,1.6-13.2-0.1-19.8c-2.5-10-9-16.5-18.9-19.1c-12.7-3.4-25-2.2-35.6,6.1
		c-11.1,8.8-15.5,20.5-13.5,34.6c0.5,3.3,1.9,6.3,4.1,8.7c2.1,2.3,2.5,4.7,1.7,7.6c-0.6,2-1,3.9-1.5,5.9c-1.1,3.7-4,5.1-7.6,3.7
		c-5.8-2.4-10-6.5-13-11.9c-4.4-8-5.7-16.7-4.9-25.7c2-23.2,20.6-43.4,46.1-48.1c12.4-2.3,24.7-2.2,36.6,2.6
		c17.2,6.9,28.2,19.2,31.8,37.5C291.8,205.6,290.8,214.4,288.8,223.1z"/>
</g>
</svg>
