<?xml version="1.0" encoding="utf-8"?>
<!-- Generator: Adobe Illustrator 20.1.0, SVG Export Plug-In . SVG Version: 6.00 Build 0)  -->
<svg version="1.1" id="Calque_1" xmlns="http://www.w3.org/2000/svg" xmlns:xlink="http://www.w3.org/1999/xlink" x="0px" y="0px"
	 viewBox="0 0 458.1 458" style="enable-background:new 0 0 458.1 458;" xml:space="preserve">
<style type="text/css">
	.st0{fill:#5CA6DA;}
	.st1{fill:#FFFFFF;}
	.st2{fill:#5DA7DA;}
</style>
<g>
	<path class="st0" d="M319.8,213.8c-3.3-20.3-12.6-37.6-27.7-51.5c-17.5-16.1-38.3-24.1-62-24.2c-8.8-0.2-17.5,1-25.9,3.6
		c-27.1,8.4-46.7,25.4-58.2,51.4c-3.9,8.8-6,18.2-6.6,27.9c-0.5,8.5-0.3,16.9,1.2,25.2c2.7,14.9,9.1,28.3,18.4,40.2
		c1,1.3,1.2,2.4,0.7,3.9c-1,3.5-1.7,7-2.7,10.5c-0.4,1.3,0.1,1.5,1.2,1.2c3.2-0.8,6.4-1.4,9.4-2.4c2.4-0.8,4.1-0.3,6.1,1.2
		c16.6,12.8,35.4,19.2,56.3,19.4c6.3,0.1,12.5-0.7,18.7-2c20.5-4.4,37.8-14.4,51.1-30.6C317.6,266.1,324.4,241.4,319.8,213.8z
		 M192.5,242.4c-7.8,0-13.4-5.7-13.4-13.5c0-7.6,6-13.5,13.5-13.4c7.6,0.1,13.3,5.8,13.3,13.4C206,236.8,200.3,242.4,192.5,242.4z
		 M230,242.4c-7.7-0.1-13.2-5.7-13.1-13.6c0-7.9,5.6-13.2,13.8-13.1c7.5,0.1,13.2,5.8,12.8,13.6C243.4,237,237.7,242.5,230,242.4z
		 M267.7,242.4c-7.7,0-13.4-5.8-13.4-13.5c0-7.5,5.8-13.3,13.3-13.4c7.6-0.1,13.5,5.7,13.5,13.4
		C281.2,236.7,275.5,242.4,267.7,242.4z"/>
	<path class="st0" d="M229.2,0C102.6-0.1,0.1,102.7,0,229c0,126.5,103,229.4,229,229c126,0.4,229-102.4,229.1-228.8
		C458.2,103,355.7,0.1,229.2,0z M333.4,236.6c-1.6,21.4-9.1,40.5-22.4,57.2c-15.7,19.8-36.1,32.3-60.8,37.7c-9,2-18,2.7-27.1,2.1
		c-17-1.1-32.7-6.2-47.2-15.1c-2-1.2-4.1-2.4-6-3.9c-1.6-1.2-3.1-1.4-5-0.8c-8.9,3-18,5.3-27.5,7.8c2.3-8.6,4.3-16.8,7.1-24.8
		c1.3-3.6,0.9-6.2-1.3-9.4c-9.2-13.1-14.8-27.7-16.8-43.6c-3.8-30.3,4.1-57.3,23.7-80.7c16.2-19.5,37-31.6,61.9-35.9
		c30.1-5.2,57.7,1.5,82.1,20.3c19.5,15.1,31.8,35,37.1,59C333.4,216.3,334.2,226.4,333.4,236.6z"/>
	<path class="st1" d="M319.8,213.8c-3.3-20.3-12.6-37.6-27.7-51.5c-17.5-16.1-38.3-24.1-62-24.2c-8.8-0.2-17.5,1-25.9,3.6
		c-27.1,8.4-46.7,25.4-58.2,51.4c-3.9,8.8-6,18.2-6.6,27.9c-0.5,8.5-0.3,16.9,1.2,25.2c2.7,14.9,9.1,28.3,18.4,40.2
		c1,1.3,1.2,2.4,0.7,3.9c-1,3.5-1.7,7-2.7,10.5c-0.4,1.3,0.1,1.5,1.2,1.2c3.2-0.8,6.4-1.4,9.4-2.4c2.4-0.8,4.1-0.3,6.1,1.2
		c16.6,12.8,35.4,19.2,56.3,19.4c6.3,0.1,12.5-0.7,18.7-2c20.5-4.4,37.8-14.4,51.1-30.6C317.6,266.1,324.4,241.4,319.8,213.8z
		 M192.5,242.4c-7.8,0-13.4-5.7-13.4-13.5c0-7.6,6-13.5,13.5-13.4c7.6,0.1,13.3,5.8,13.3,13.4C206,236.8,200.3,242.4,192.5,242.4z
		 M230,242.4c-7.7-0.1-13.2-5.7-13.1-13.6c0-7.9,5.6-13.2,13.8-13.1c7.5,0.1,13.2,5.8,12.8,13.6C243.4,237,237.7,242.5,230,242.4z
		 M267.7,242.4c-7.7,0-13.4-5.8-13.4-13.5c0-7.5,5.8-13.3,13.3-13.4c7.6-0.1,13.5,5.7,13.5,13.4
		C281.2,236.7,275.5,242.4,267.7,242.4z"/>
	<path class="st2" d="M319.8,213.8c-3.3-20.3-12.6-37.6-27.7-51.5c-17.5-16.1-38.3-24.1-62-24.2c-8.8-0.2-17.5,1-25.9,3.6
		c-27.1,8.4-46.7,25.4-58.2,51.4c-3.9,8.8-6,18.2-6.6,27.9c-0.5,8.5-0.3,16.9,1.2,25.2c2.7,14.9,9.1,28.3,18.4,40.2
		c1,1.3,1.2,2.4,0.7,3.9c-1,3.5-1.7,7-2.7,10.5c-0.4,1.3,0.1,1.5,1.2,1.2c3.2-0.8,6.4-1.4,9.4-2.4c2.4-0.8,4.1-0.3,6.1,1.2
		c16.6,12.8,35.4,19.2,56.3,19.4c6.3,0.1,12.5-0.7,18.7-2c20.5-4.4,37.8-14.4,51.1-30.6C317.6,266.1,324.4,241.4,319.8,213.8z
		 M192.5,242.4c-7.8,0-13.4-5.7-13.4-13.5c0-7.6,6-13.5,13.5-13.4c7.6,0.1,13.3,5.8,13.3,13.4C206,236.8,200.3,242.4,192.5,242.4z
		 M230,242.4c-7.7-0.1-13.2-5.7-13.1-13.6c0-7.9,5.6-13.2,13.8-13.1c7.5,0.1,13.2,5.8,12.8,13.6C243.4,237,237.7,242.5,230,242.4z
		 M267.7,242.4c-7.7,0-13.4-5.8-13.4-13.5c0-7.5,5.8-13.3,13.3-13.4c7.6-0.1,13.5,5.7,13.5,13.4
		C281.2,236.7,275.5,242.4,267.7,242.4z"/>
</g>
</svg>
