<?xml version="1.0" encoding="utf-8"?>
<!-- Generator: Adobe Illustrator 21.1.0, SVG Export Plug-In . SVG Version: 6.00 Build 0)  -->
<svg version="1.1" id="Calque_1" xmlns="http://www.w3.org/2000/svg" xmlns:xlink="http://www.w3.org/1999/xlink" x="0px" y="0px"
	 viewBox="0 0 444.6 444.7" style="enable-background:new 0 0 444.6 444.7;" xml:space="preserve">
<style type="text/css">
	.st0{fill:#5EA7DB;}
</style>
<g>
	<path class="st0" d="M221.4,0C98.2,0.5-0.2,100.6,0,222.4C-0.1,345,99.7,444.9,222.6,444.7c122-0.2,222-98.6,222-222.4
		C444.5,98.7,344.8-0.5,221.4,0z M221.8,431.8c-114.5-0.2-208.9-92.1-208.9-209.4S107.6,13,222.2,13c115.1,0,209.5,92.8,209.4,209.5
		C431.6,338.7,337.8,432,221.8,431.8z"/>
</g>
<g>
	<path class="st0" d="M230.6,172.7c0,2,0.7,4.3,2.3,6l35.4,35.1H155.5c-4.7,0-8.3,3.6-8.3,8.3s3.7,8.3,8.3,8.3h112.9L233,265.1
		c-1.7,1.7-2.3,3.6-2.3,6c0,2.3,0.7,4.3,2.3,6c3.3,3.3,8.7,3.3,11.7,0l49.4-49c0.3-0.3,0.7-1,1-1.3c1.7-2.3,1.7-5.3,0.7-7.6
		c-0.3-1-1-2-1.7-2.6l0,0l-49.4-49.7c-3.3-3.3-8.7-3.3-11.7,0C231.3,168.4,230.6,170.4,230.6,172.7z"/>
</g>
</svg>
