<?xml version="1.0" encoding="utf-8"?>
<!-- Generator: Adobe Illustrator 20.1.0, SVG Export Plug-In . SVG Version: 6.00 Build 0)  -->
<svg version="1.1" id="Calque_1" xmlns="http://www.w3.org/2000/svg" xmlns:xlink="http://www.w3.org/1999/xlink" x="0px" y="0px"
	 viewBox="0 0 386.4 386.3" style="enable-background:new 0 0 386.4 386.3;" xml:space="preserve">
<style type="text/css">
	.st0{fill:#5DA7DB;}
	.st1{fill:#FFFFFF;}
</style>
<g>
	<path class="st0" d="M219.1,194.2c0,1.2-0.9,1.8-1.9,2.2c-14.5,6.9-29,13.9-43.5,20.9c-1.3,0.6-2.3,0.2-2.6-1.2
		c-0.1-0.5-0.1-1.1-0.1-1.6c0-6.9,0-13.9,0-20.8c0-7,0-14,0-21c0-2.3,1.7-3.4,3.7-2.4c14.2,7.1,28.4,14.2,42.7,21.3
		C218.4,192.2,219.1,192.9,219.1,194.2z"/>
	<path class="st0" d="M193.2,0C87.2-0.4-0.5,86.4,0,194.2c0.5,105.5,86.8,192.7,194.4,192.1c104.3-0.5,192.1-85,192-193.3
		C386.4,84.8,298.3-0.4,193.2,0z M276.3,217.4c-0.1,17.6-12.5,31.9-30,34.3c-2.2,0.3-4.4,0.3-6.5,0.3c-30.7,0-61.4,0-92.1,0
		c-10.8,0-20.1-3.2-27.5-11.2c-5.9-6.4-9-14-9-22.8c-0.1-16.2-0.1-32.4,0-48.5c0.1-17.2,12.7-31.6,29.6-33.9
		c2.1-0.3,4.2-0.4,6.2-0.4c15.6,0,31.1,0,46.7,0c15.7,0,31.5-0.1,47.2,0c12.9,0.1,23,5.5,29.9,16.5c3.5,5.7,5.4,11.9,5.4,18.6
		C276.3,186,276.3,201.7,276.3,217.4z"/>
	<path class="st1" d="M219.1,194.2c0,1.2-0.9,1.8-1.9,2.2c-14.5,6.9-29,13.9-43.5,20.9c-1.3,0.6-2.3,0.2-2.6-1.2
		c-0.1-0.5-0.1-1.1-0.1-1.6c0-6.9,0-13.9,0-20.8c0-7,0-14,0-21c0-2.3,1.7-3.4,3.7-2.4c14.2,7.1,28.4,14.2,42.7,21.3
		C218.4,192.2,219.1,192.9,219.1,194.2z"/>
	<path class="st0" d="M219.1,194.2c0,1.2-0.9,1.8-1.9,2.2c-14.5,6.9-29,13.9-43.5,20.9c-1.3,0.6-2.3,0.2-2.6-1.2
		c-0.1-0.5-0.1-1.1-0.1-1.6c0-6.9,0-13.9,0-20.8c0-7,0-14,0-21c0-2.3,1.7-3.4,3.7-2.4c14.2,7.1,28.4,14.2,42.7,21.3
		C218.4,192.2,219.1,192.9,219.1,194.2z"/>
</g>
</svg>
